{
  "tasksArr": [
    {
      "taskID": 4,
      "taskMessage": "123",
      "isChecked": false
    },
    {
      "taskID": 6,
      "taskMessage": "maccabTelAviv",
      "isChecked": true
    },
    {
      "taskID": 7,
      "taskMessage": "helloWorld",
      "isChecked": false
    }
  ],
  "nextID": 8
}